{
  "name": "puppet-telegraf",
  "version": "3.1.0",
  "author": "Vox Pupuli",
  "summary": "Configuration and management of InfluxData's Telegraf metrics collection agent",
  "license": "GPL-3.0",
  "source": "https://github.com/voxpupuli/puppet-telegraf",
  "project_page": "https://github.com/voxpupuli/puppet-telegraf",
  "issues_url": "https://github.com/voxpupuli/puppet-telegraf/issues",
  "dependencies": [
    {
      "name": "puppetlabs-stdlib",
      "version_requirement": ">=5.0.0 < 7.0.0"
    },
    {
      "name": "puppetlabs-apt",
      "version_requirement": ">= 2.0.0 < 8.0.0"
    },
    {
      "name": "puppet-archive",
      "version_requirement": ">= 4.0.0 < 5.0.0"
    }
  ],
  "data_provider": null,
  "tags": [
    "telegraf",
    "influxdb",
    "influxdata"
  ],
  "operatingsystem_support": [
    {
      "operatingsystem": "RedHat",
      "operatingsystemrelease": [
        "6",
        "7",
        "8"
      ]
    },
    {
      "operatingsystem": "Raspbian",
      "operatingsystemrelease": [
        "8",
        "9",
        "10"
      ]
    },
    {
      "operatingsystem": "Debian",
      "operatingsystemrelease": [
        "8",
        "9",
        "10"
      ]
    },
    {
      "operatingsystem": "CentOS",
      "operatingsystemrelease": [
        "6",
        "7",
        "8"
      ]
    },
    {
      "operatingsystem": "OracleLinux",
      "operatingsystemrelease": [
        "6",
        "7",
        "8"
      ]
    },
    {
      "operatingsystem": "Ubuntu",
      "operatingsystemrelease": [
        "16.04",
        "18.04"
      ]
    },
    {
      "operatingsystem": "Windows",
      "operatingsystemrelease": [
        "Server 2008",
        "Server 2008 R2",
        "Server 2012",
        "Server 2012 R2"
      ]
    },
    {
      "operatingsystem": "SLES",
      "operatingsystemrelease": [
        "12"
      ]
    }
  ],
  "requirements": [
    {
      "name": "puppet",
      "version_requirement": ">= 5.5.8 < 7.0.0"
    }
  ]
}
